TB_alu32.vcd
$date
   Tue May 18 20:08:43 2021
$end
$version
  P.20131013
$end
$timescale
  1ps
$end
$scope module TB_alu32 $end
$var wire 1 ! RESULT [31] $end
$var wire 1 " RESULT [30] $end
$var wire 1 # RESULT [29] $end
$var wire 1 $ RESULT [28] $end
$var wire 1 % RESULT [27] $end
$var wire 1 & RESULT [26] $end
$var wire 1 ' RESULT [25] $end
$var wire 1 ( RESULT [24] $end
$var wire 1 ) RESULT [23] $end
$var wire 1 * RESULT [22] $end
$var wire 1 + RESULT [21] $end
$var wire 1 , RESULT [20] $end
$var wire 1 - RESULT [19] $end
$var wire 1 . RESULT [18] $end
$var wire 1 / RESULT [17] $end
$var wire 1 0 RESULT [16] $end
$var wire 1 1 RESULT [15] $end
$var wire 1 2 RESULT [14] $end
$var wire 1 3 RESULT [13] $end
$var wire 1 4 RESULT [12] $end
$var wire 1 5 RESULT [11] $end
$var wire 1 6 RESULT [10] $end
$var wire 1 7 RESULT [9] $end
$var wire 1 8 RESULT [8] $end
$var wire 1 9 RESULT [7] $end
$var wire 1 : RESULT [6] $end
$var wire 1 ; RESULT [5] $end
$var wire 1 < RESULT [4] $end
$var wire 1 = RESULT [3] $end
$var wire 1 > RESULT [2] $end
$var wire 1 ? RESULT [1] $end
$var wire 1 @ RESULT [0] $end
$var wire 1 .! LT $end
$var wire 1 /! LTU $end
$var wire 1 0! EQ $end
$var reg 32 D OP1 [31:0] $end
$var reg 32 E OP2 [31:0] $end
$var reg 4 F OPCODE [3:0] $end
$var reg 1 G clk $end
$scope module uut $end
$var wire 1 H OP1 [31] $end
$var wire 1 I OP1 [30] $end
$var wire 1 J OP1 [29] $end
$var wire 1 K OP1 [28] $end
$var wire 1 L OP1 [27] $end
$var wire 1 M OP1 [26] $end
$var wire 1 N OP1 [25] $end
$var wire 1 O OP1 [24] $end
$var wire 1 P OP1 [23] $end
$var wire 1 Q OP1 [22] $end
$var wire 1 R OP1 [21] $end
$var wire 1 S OP1 [20] $end
$var wire 1 T OP1 [19] $end
$var wire 1 U OP1 [18] $end
$var wire 1 V OP1 [17] $end
$var wire 1 W OP1 [16] $end
$var wire 1 X OP1 [15] $end
$var wire 1 Y OP1 [14] $end
$var wire 1 Z OP1 [13] $end
$var wire 1 [ OP1 [12] $end
$var wire 1 \ OP1 [11] $end
$var wire 1 ] OP1 [10] $end
$var wire 1 ^ OP1 [9] $end
$var wire 1 _ OP1 [8] $end
$var wire 1 ` OP1 [7] $end
$var wire 1 a OP1 [6] $end
$var wire 1 b OP1 [5] $end
$var wire 1 c OP1 [4] $end
$var wire 1 d OP1 [3] $end
$var wire 1 e OP1 [2] $end
$var wire 1 f OP1 [1] $end
$var wire 1 g OP1 [0] $end
$var wire 1 h OP2 [31] $end
$var wire 1 i OP2 [30] $end
$var wire 1 j OP2 [29] $end
$var wire 1 k OP2 [28] $end
$var wire 1 l OP2 [27] $end
$var wire 1 m OP2 [26] $end
$var wire 1 n OP2 [25] $end
$var wire 1 o OP2 [24] $end
$var wire 1 p OP2 [23] $end
$var wire 1 q OP2 [22] $end
$var wire 1 r OP2 [21] $end
$var wire 1 s OP2 [20] $end
$var wire 1 t OP2 [19] $end
$var wire 1 u OP2 [18] $end
$var wire 1 v OP2 [17] $end
$var wire 1 w OP2 [16] $end
$var wire 1 x OP2 [15] $end
$var wire 1 y OP2 [14] $end
$var wire 1 z OP2 [13] $end
$var wire 1 { OP2 [12] $end
$var wire 1 | OP2 [11] $end
$var wire 1 } OP2 [10] $end
$var wire 1 ~ OP2 [9] $end
$var wire 1 !! OP2 [8] $end
$var wire 1 "! OP2 [7] $end
$var wire 1 #! OP2 [6] $end
$var wire 1 $! OP2 [5] $end
$var wire 1 %! OP2 [4] $end
$var wire 1 &! OP2 [3] $end
$var wire 1 '! OP2 [2] $end
$var wire 1 (! OP2 [1] $end
$var wire 1 )! OP2 [0] $end
$var wire 1 *! OPCODE [3] $end
$var wire 1 +! OPCODE [2] $end
$var wire 1 ,! OPCODE [1] $end
$var wire 1 -! OPCODE [0] $end
$var wire 1 .! LT $end
$var wire 1 /! LTU $end
$var wire 1 0! EQ $end
$var wire 1 1! shift [4] $end
$var wire 1 2! shift [3] $end
$var wire 1 3! shift [2] $end
$var wire 1 4! shift [1] $end
$var wire 1 5! shift [0] $end
$var wire 1 6! zero [30] $end
$var wire 1 7! zero [29] $end
$var wire 1 8! zero [28] $end
$var wire 1 9! zero [27] $end
$var wire 1 :! zero [26] $end
$var wire 1 ;! zero [25] $end
$var wire 1 <! zero [24] $end
$var wire 1 =! zero [23] $end
$var wire 1 >! zero [22] $end
$var wire 1 ?! zero [21] $end
$var wire 1 @! zero [20] $end
$var wire 1 A! zero [19] $end
$var wire 1 B! zero [18] $end
$var wire 1 C! zero [17] $end
$var wire 1 D! zero [16] $end
$var wire 1 E! zero [15] $end
$var wire 1 F! zero [14] $end
$var wire 1 G! zero [13] $end
$var wire 1 H! zero [12] $end
$var wire 1 I! zero [11] $end
$var wire 1 J! zero [10] $end
$var wire 1 K! zero [9] $end
$var wire 1 L! zero [8] $end
$var wire 1 M! zero [7] $end
$var wire 1 N! zero [6] $end
$var wire 1 O! zero [5] $end
$var wire 1 P! zero [4] $end
$var wire 1 Q! zero [3] $end
$var wire 1 R! zero [2] $end
$var wire 1 S! zero [1] $end
$var wire 1 T! zero [0] $end
$var reg 32 U! RESULT [31:0] $end
$upscope $end
$upscope $end
$enddefinitions $end
#100000
$dumpvars
0N
0M
0L
0K
0J
0I
0H
0)!
1(!
0'!
1&!
b1010101010101010101 D
b10101010101010101010 E
b0 F
1G
11
10
1/
1.
1-
0,
0+
0*
0)
0(
0'
0&
0%
0$
0#
0"
0!
1.!
1/!
00!
b11111111111111111111 U!
1@
1?
1>
1=
1<
1c
0b
1a
0`
1_
0^
1]
0\
1[
0Z
1Y
0X
1W
0V
1U
0T
0S
0R
0Q
0P
0O
1;
1:
19
18
17
16
15
14
13
12
0f
1e
0d
1g
05!
14!
03!
12!
01!
0T!
0S!
0R!
0Q!
0P!
0O!
0N!
0M!
0L!
0K!
0J!
0I!
0H!
0G!
0F!
0E!
0D!
0C!
0B!
0A!
0@!
0?!
0>!
0=!
0<!
0;!
0:!
09!
08!
07!
06!
0-!
0,!
0%!
1$!
0#!
1"!
0!!
1~
0}
1|
0{
1z
0y
1x
0w
1v
0u
1t
0s
0r
0q
0p
0o
0n
0m
0l
0k
0j
0i
0h
0+!
0*!
$end
#110000
0G
#120000
1G
#130000
0G
#140000
1G
#150000
1)!
0(!
1'!
0&!
b1010101010101010101 E
0G
00
0.
0.!
0/!
10!
b10101010101010101010 U!
0@
0>
0<
0:
08
06
04
02
15!
04!
13!
02!
11!
1%!
0$!
1#!
0"!
1!!
0~
1}
0|
1{
0z
1y
0x
1w
0v
1u
0t
#160000
1G
#170000
0G
#180000
1G
#190000
0G
#200000
1(!
0'!
b110011001100110011 E
1G
0/
00!
b10001000100010001000 U!
0?
0;
07
03
14!
03!
1$!
0#!
1~
0}
1z
0y
1v
0u
#210000
0G
#220000
1G
#230000
0G
#240000
1G
#250000
0)!
1&!
b10101010101010101010 E
b1 F
0G
1/
1,
1+
1*
1)
1(
1'
1&
1%
1$
1#
1"
1!
1.!
1/!
b11111111111110101010101010101011 U!
1@
1?
1;
17
13
05!
12!
01!
1-!
0%!
1"!
0!!
1|
0{
1x
0w
1t
#260000
1G
#270000
0G
#280000
1G
#290000
0G
#300000
1)!
0(!
1'!
0&!
b1010101010101010101 E
1G
01
0/
0-
0,
0+
0*
0)
0(
0'
0&
0%
0$
0#
0"
0!
0.!
0/!
10!
b0 U!
0@
0?
0=
0;
09
07
05
03
15!
04!
13!
02!
11!
1%!
0$!
1#!
0"!
1!!
0~
1}
0|
1{
0z
1y
0x
1w
0v
1u
0t
#310000
0G
#320000
1G
#330000
0G
#340000
1G
#350000
1(!
0'!
b110011001100110011 E
0G
1/
00!
b100010001000100010 U!
1?
1;
17
13
14!
03!
1$!
0#!
1~
0}
1z
0y
1v
0u
#360000
1G
#370000
0G
#380000
1G
#390000
0G
#400000
1G
#410000
0G
#420000
1G
#430000
0G
#440000
1G
#450000
b10 F
0G
0/
1-
1+
1)
1'
1%
1#
1!
b10101010101010000000000000000000 U!
0?
0;
07
03
0-!
1,!
#460000
1G
#470000
0G
#480000
1G
#490000
0G
#500000
0(!
b1 E
1G
11
1/
0+
0)
0'
0%
0#
0!
b10101010101010101010 U!
1?
1=
1;
19
17
15
13
04!
01!
0%!
0$!
0!!
0~
0{
0z
0w
0v
#510000
0G
#520000
1G
#530000
0G
#540000
1G
#550000
1(!
b11 E
0G
1+
b1010101010101010101000 U!
0?
14!
#560000
1G
#570000
0G
#580000
1G
#590000
0G
#600000
1'!
b111 E
1G
1)
1'
b10101010101010101010000000 U!
0=
0;
13!
#610000
0G
#620000
1G
#630000
0G
#640000
1G
#650000
1&!
b1111 E
0G
1%
1#
1!
b10101010101010101000000000000000 U!
09
07
05
03
12!
#660000
1G
#670000
0G
#680000
1G
#690000
0G
#700000
b11111 E
1G
01
0/
0-
0+
0)
0'
0%
0#
b10000000000000000000000000000000 U!
11!
1%!
#710000
0G
#720000
1G
#730000
0G
#740000
1G
#750000
0G
#760000
1G
#770000
0G
#780000
1G
#790000
0G
#800000
0)!
0'!
b10101010101010101010 E
b11 F
1G
0!
1.!
1/!
b1 U!
1@
05!
03!
01!
1-!
0%!
1$!
1"!
1~
1|
1z
1x
1v
1t
#810000
0G
#820000
1G
#830000
0G
#840000
1G
#850000
1)!
0(!
1'!
0&!
b1010101010101010101 E
0G
0.!
0/!
10!
b0 U!
0@
15!
04!
13!
02!
11!
1%!
0$!
1#!
0"!
1!!
0~
1}
0|
1{
0z
1y
0x
1w
0v
1u
0t
#860000
1G
#870000
0G
#880000
1G
#890000
0G
#900000
1(!
0'!
b110011001100110011 E
1G
00!
14!
03!
1$!
0#!
1~
0}
1z
0y
1v
0u
#910000
0G
#920000
1G
#930000
0G
#940000
1G
#950000
0)!
1&!
b10101010101010101010 E
b100 F
0G
1.!
1/!
b1 U!
1@
05!
12!
01!
0-!
0,!
0%!
1"!
0!!
1|
0{
1x
0w
1t
1+!
#960000
1G
#970000
0G
#980000
1G
#990000
0G
#1000000
1)!
0(!
1'!
0&!
b1010101010101010101 E
1G
0.!
0/!
10!
b0 U!
0@
15!
04!
13!
02!
11!
1%!
0$!
1#!
0"!
1!!
0~
1}
0|
1{
0z
1y
0x
1w
0v
1u
0t
