CPU/TB_alu32.vcd
$date
   Sun Apr 25 01:56:39 2021
$end
$version
  P.20131013
$end
$timescale
  1ps
$end
$scope module TB_alu32 $end
$var wire 1 ! RESULT [31] $end
$var wire 1 " RESULT [30] $end
$var wire 1 # RESULT [29] $end
$var wire 1 $ RESULT [28] $end
$var wire 1 % RESULT [27] $end
$var wire 1 & RESULT [26] $end
$var wire 1 ' RESULT [25] $end
$var wire 1 ( RESULT [24] $end
$var wire 1 ) RESULT [23] $end
$var wire 1 * RESULT [22] $end
$var wire 1 + RESULT [21] $end
$var wire 1 , RESULT [20] $end
$var wire 1 - RESULT [19] $end
$var wire 1 . RESULT [18] $end
$var wire 1 / RESULT [17] $end
$var wire 1 0 RESULT [16] $end
$var wire 1 1 RESULT [15] $end
$var wire 1 2 RESULT [14] $end
$var wire 1 3 RESULT [13] $end
$var wire 1 4 RESULT [12] $end
$var wire 1 5 RESULT [11] $end
$var wire 1 6 RESULT [10] $end
$var wire 1 7 RESULT [9] $end
$var wire 1 8 RESULT [8] $end
$var wire 1 9 RESULT [7] $end
$var wire 1 : RESULT [6] $end
$var wire 1 ; RESULT [5] $end
$var wire 1 < RESULT [4] $end
$var wire 1 = RESULT [3] $end
$var wire 1 > RESULT [2] $end
$var wire 1 ? RESULT [1] $end
$var wire 1 @ RESULT [0] $end
$var wire 1 .! LT $end
$var wire 1 /! LTU $end
$var wire 1 0! EQ $end
$var reg 32 D OP1 [31:0] $end
$var reg 32 E OP2 [31:0] $end
$var reg 4 F OPCODE [3:0] $end
$var reg 1 G clk $end
$scope module uut $end
$var wire 1 H OP1 [31] $end
$var wire 1 I OP1 [30] $end
$var wire 1 J OP1 [29] $end
$var wire 1 K OP1 [28] $end
$var wire 1 L OP1 [27] $end
$var wire 1 M OP1 [26] $end
$var wire 1 N OP1 [25] $end
$var wire 1 O OP1 [24] $end
$var wire 1 P OP1 [23] $end
$var wire 1 Q OP1 [22] $end
$var wire 1 R OP1 [21] $end
$var wire 1 S OP1 [20] $end
$var wire 1 T OP1 [19] $end
$var wire 1 U OP1 [18] $end
$var wire 1 V OP1 [17] $end
$var wire 1 W OP1 [16] $end
$var wire 1 X OP1 [15] $end
$var wire 1 Y OP1 [14] $end
$var wire 1 Z OP1 [13] $end
$var wire 1 [ OP1 [12] $end
$var wire 1 \ OP1 [11] $end
$var wire 1 ] OP1 [10] $end
$var wire 1 ^ OP1 [9] $end
$var wire 1 _ OP1 [8] $end
$var wire 1 ` OP1 [7] $end
$var wire 1 a OP1 [6] $end
$var wire 1 b OP1 [5] $end
$var wire 1 c OP1 [4] $end
$var wire 1 d OP1 [3] $end
$var wire 1 e OP1 [2] $end
$var wire 1 f OP1 [1] $end
$var wire 1 g OP1 [0] $end
$var wire 1 h OP2 [31] $end
$var wire 1 i OP2 [30] $end
$var wire 1 j OP2 [29] $end
$var wire 1 k OP2 [28] $end
$var wire 1 l OP2 [27] $end
$var wire 1 m OP2 [26] $end
$var wire 1 n OP2 [25] $end
$var wire 1 o OP2 [24] $end
$var wire 1 p OP2 [23] $end
$var wire 1 q OP2 [22] $end
$var wire 1 r OP2 [21] $end
$var wire 1 s OP2 [20] $end
$var wire 1 t OP2 [19] $end
$var wire 1 u OP2 [18] $end
$var wire 1 v OP2 [17] $end
$var wire 1 w OP2 [16] $end
$var wire 1 x OP2 [15] $end
$var wire 1 y OP2 [14] $end
$var wire 1 z OP2 [13] $end
$var wire 1 { OP2 [12] $end
$var wire 1 | OP2 [11] $end
$var wire 1 } OP2 [10] $end
$var wire 1 ~ OP2 [9] $end
$var wire 1 !! OP2 [8] $end
$var wire 1 "! OP2 [7] $end
$var wire 1 #! OP2 [6] $end
$var wire 1 $! OP2 [5] $end
$var wire 1 %! OP2 [4] $end
$var wire 1 &! OP2 [3] $end
$var wire 1 '! OP2 [2] $end
$var wire 1 (! OP2 [1] $end
$var wire 1 )! OP2 [0] $end
$var wire 1 *! OPCODE [3] $end
$var wire 1 +! OPCODE [2] $end
$var wire 1 ,! OPCODE [1] $end
$var wire 1 -! OPCODE [0] $end
$var wire 1 .! LT $end
$var wire 1 /! LTU $end
$var wire 1 0! EQ $end
$var wire 1 1! shift [4] $end
$var wire 1 2! shift [3] $end
$var wire 1 3! shift [2] $end
$var wire 1 4! shift [1] $end
$var wire 1 5! shift [0] $end
$var wire 1 6! zero [30] $end
$var wire 1 7! zero [29] $end
$var wire 1 8! zero [28] $end
$var wire 1 9! zero [27] $end
$var wire 1 :! zero [26] $end
$var wire 1 ;! zero [25] $end
$var wire 1 <! zero [24] $end
$var wire 1 =! zero [23] $end
$var wire 1 >! zero [22] $end
$var wire 1 ?! zero [21] $end
$var wire 1 @! zero [20] $end
$var wire 1 A! zero [19] $end
$var wire 1 B! zero [18] $end
$var wire 1 C! zero [17] $end
$var wire 1 D! zero [16] $end
$var wire 1 E! zero [15] $end
$var wire 1 F! zero [14] $end
$var wire 1 G! zero [13] $end
$var wire 1 H! zero [12] $end
$var wire 1 I! zero [11] $end
$var wire 1 J! zero [10] $end
$var wire 1 K! zero [9] $end
$var wire 1 L! zero [8] $end
$var wire 1 M! zero [7] $end
$var wire 1 N! zero [6] $end
$var wire 1 O! zero [5] $end
$var wire 1 P! zero [4] $end
$var wire 1 Q! zero [3] $end
$var wire 1 R! zero [2] $end
$var wire 1 S! zero [1] $end
$var wire 1 T! zero [0] $end
$var reg 32 U! RESULT [31:0] $end
$upscope $end
$upscope $end
$enddefinitions $end
#100000
$dumpvars
1?
1@
1g
1>
0f
1=
1<
1;
1:
19
18
17
1[
0Z
1Y
0X
1W
0V
1U
0T
0S
0R
1e
0d
1c
0b
1a
0`
1_
0^
1]
0\
0Q
0P
0O
0N
0M
0L
0K
0J
0I
0H
0)!
1(!
0'!
b1010101010101010101 D
b10101010101010101010 E
b0 F
1G
16
15
14
13
12
11
10
1/
1.
1-
0,
0+
0*
0)
0(
0'
0&
0%
0$
0#
0"
0!
1.!
1/!
00!
b11111111111111111111 U!
05!
14!
03!
12!
01!
0T!
0S!
0R!
0Q!
0P!
0O!
0N!
0M!
0L!
0K!
0J!
0I!
0H!
0G!
0F!
0E!
0D!
0C!
0B!
0A!
0@!
0?!
0>!
0=!
0<!
0;!
0:!
09!
08!
07!
06!
0-!
0,!
1&!
0%!
1$!
0#!
1"!
0!!
1~
0}
1|
0{
1z
0y
1x
0w
1v
0u
1t
0s
0r
0q
0p
0o
0n
0m
0l
0k
0j
0i
0h
0+!
0*!
$end
#110000
0G
#120000
1G
#130000
0G
#140000
1G
#150000
0@
0>
0<
0:
08
1)!
0(!
1'!
b1010101010101010101 E
0G
06
04
02
00
0.
0.!
0/!
10!
b10101010101010101010 U!
15!
04!
13!
02!
11!
0&!
1%!
0$!
1#!
0"!
1!!
0~
1}
0|
1{
0z
1y
0x
1w
0v
1u
0t
#160000
1G
#170000
0G
#180000
1G
#190000
0G
#200000
0?
0;
07
1(!
0'!
b110011001100110011 E
1G
03
0/
00!
b10001000100010001000 U!
14!
03!
1$!
0#!
1~
0}
1z
0y
1v
0u
#210000
0G
#220000
1G
#230000
0G
#240000
1G
#250000
1?
1@
1;
17
0)!
b10101010101010101010 E
b1 F
0G
13
1/
1,
1+
1*
1)
1(
1'
1&
1%
1$
1#
1"
1!
1.!
1/!
b11111111111110101010101010101011 U!
05!
12!
01!
1-!
1&!
0%!
1"!
0!!
1|
0{
1x
0w
1t
#260000
1G
#270000
0G
#280000
1G
#290000
0G
#300000
0?
0@
0=
0;
09
07
1)!
0(!
1'!
b1010101010101010101 E
1G
05
03
01
0/
0-
0,
0+
0*
0)
0(
0'
0&
0%
0$
0#
0"
0!
0.!
0/!
10!
b0 U!
15!
04!
13!
02!
11!
0&!
1%!
0$!
1#!
0"!
1!!
0~
1}
0|
1{
0z
1y
0x
1w
0v
1u
0t
#310000
0G
#320000
1G
#330000
0G
#340000
1G
#350000
1?
1;
17
1(!
0'!
b110011001100110011 E
0G
13
1/
00!
b100010001000100010 U!
14!
03!
1$!
0#!
1~
0}
1z
0y
1v
0u
#360000
1G
#370000
0G
#380000
1G
#390000
0G
#400000
1G
#410000
0G
#420000
1G
#430000
0G
#440000
1G
#450000
0?
0;
07
b10 F
0G
03
0/
1-
1+
1)
1'
1%
1#
1!
b10101010101010000000000000000000 U!
0-!
1,!
#460000
1G
#470000
0G
#480000
1G
#490000
0G
#500000
1?
1=
1;
19
17
0(!
b1 E
1G
15
13
11
1/
0+
0)
0'
0%
0#
0!
b10101010101010101010 U!
04!
01!
0%!
0$!
0!!
0~
0{
0z
0w
0v
#510000
0G
#520000
1G
#530000
0G
#540000
1G
#550000
0?
1(!
b11 E
0G
1+
b1010101010101010101000 U!
14!
#560000
1G
#570000
0G
#580000
1G
#590000
0G
#600000
0=
0;
1'!
b111 E
1G
1)
1'
b10101010101010101010000000 U!
13!
#610000
0G
#620000
1G
#630000
0G
#640000
1G
#650000
09
07
b1111 E
0G
05
03
1%
1#
1!
b10101010101010101000000000000000 U!
12!
1&!
#660000
1G
#670000
0G
#680000
1G
#690000
0G
#700000
b11111 E
1G
01
0/
0-
0+
0)
0'
0%
0#
b10000000000000000000000000000000 U!
11!
1%!
#710000
0G
#720000
1G
#730000
0G
#740000
1G
#750000
0G
#760000
1G
#770000
0G
#780000
1G
#790000
0G
#800000
1@
0)!
0'!
b10101010101010101010 E
b11 F
1G
0!
1.!
1/!
b1 U!
05!
03!
01!
1-!
0%!
1$!
1"!
1~
1|
1z
1x
1v
1t
#810000
0G
#820000
1G
#830000
0G
#840000
1G
#850000
0@
1)!
0(!
1'!
b1010101010101010101 E
0G
0.!
0/!
10!
b0 U!
15!
04!
13!
02!
11!
0&!
1%!
0$!
1#!
0"!
1!!
0~
1}
0|
1{
0z
1y
0x
1w
0v
1u
0t
#860000
1G
#870000
0G
#880000
1G
#890000
0G
#900000
1(!
0'!
b110011001100110011 E
1G
00!
14!
03!
1$!
0#!
1~
0}
1z
0y
1v
0u
#910000
0G
#920000
1G
#930000
0G
#940000
1G
#950000
1@
0)!
b10101010101010101010 E
b100 F
0G
1.!
1/!
b1 U!
05!
12!
01!
0-!
0,!
1&!
0%!
1"!
0!!
1|
0{
1x
0w
1t
1+!
#960000
1G
#970000
0G
#980000
1G
#990000
0G
#1000000
0@
1)!
0(!
1'!
b1010101010101010101 E
1G
0.!
0/!
10!
b0 U!
15!
04!
13!
02!
11!
0&!
1%!
0$!
1#!
0"!
1!!
0~
1}
0|
1{
0z
1y
0x
1w
0v
1u
0t
#1010000
0G
#1020000
1G
#1030000
0G
#1040000
1G
#1050000
1(!
0'!
b110011001100110011 E
0G
00!
14!
03!
1$!
0#!
1~
0}
1z
0y
1v
0u
#1060000
1G
#1070000
0G
#1080000
1G
#1090000
0G
#1100000
1?
1@
1>
1=
1<
1;
1:
19
18
17
0)!
b10101010101010101010 E
b101 F
1G
16
15
14
13
12
11
10
1/
1.
1-
1.!
1/!
b11111111111111111111 U!
05!
12!
01!
1-!
1&!
0%!
1"!
0!!
1|
0{
1x
0w
1t
#1110000
0G
#1120000
1G
#1130000
0G
#1140000
1G
#1150000
0?
0@
0>
0=
0<
0;
0:
09
08
07
1)!
0(!
1'!
b1010101010101010101 E
0G
06
05
04
03
02
01
00
0/
0.
0-
0.!
0/!
10!
b0 U!
15!
04!
13!
02!
11!
0&!
1%!
0$!
1#!
0"!
1!!
0~
1}
0|
1{
0z
1y
0x
1w
0v
1u
0t
#1160000
1G
#1170000
0G
#1180000
1G
#1190000
0G
#1200000
1?
1>
1;
1:
17
1(!
0'!
b110011001100110011 E
1G
16
13
12
1/
1.
00!
b1100110011001100110 U!
14!
03!
1$!
0#!
1~
0}
1z
0y
1v
0u
#1210000
0G
#1220000
1G
#1230000
0G
#1240000
1G
#1250000
0?
0>
0;
0:
07
b110 F
0G
06
03
02
0/
0.
b0 U!
0-!
1,!
#1260000
1G
#1270000
0G
#1280000
1G
#1290000
0G
#1300000
1?
1=
1;
19
17
0(!
b1 E
1G
15
13
11
1/
b101010101010101010 U!
04!
01!
0%!
0$!
0!!
0~
0{
0z
0w
0v
#1310000
0G
#1320000
1G
#1330000
0G
#1340000
1G
#1350000
1(!
b11 E
0G
0/
b1010101010101010 U!
14!
#1360000
1G
#1370000
0G
#1380000
1G
#1390000
0G
#1400000
1'!
b111 E
1G
03
01
b101010101010 U!
13!
#1410000
0G
#1420000
1G
#1430000
0G
#1440000
1G
#1450000
0;
09
07
b1111 E
0G
05
b1010 U!
12!
1&!
#1460000
1G
#1470000
0G
#1480000
1G
#1490000
0G
#1500000
0?
0=
b11111 E
1G
b0 U!
11!
1%!
#1510000
0G
#1520000
1G
#1530000
0G
#1540000
1G
#1550000
0G
#1560000
1G
#1570000
0G
#1580000
1G
#1590000
0G
#1600000
b111 F
1G
1-!
#1610000
0G
#1620000
1G
#1630000
0G
#1640000
1G
#1650000
1?
1=
1;
19
17
0(!
0'!
b1 E
0G
15
13
11
1/
b101010101010101010 U!
04!
03!
02!
01!
0&!
0%!
#1660000
1G
#1670000
0G
#1680000
1G
#1690000
0G
#1700000
1(!
b11 E
1G
0/
b1010101010101010 U!
14!
#1710000
0G
#1720000
1G
#1730000
0G
#1740000
1G
#1750000
1'!
b111 E
0G
03
01
b101010101010 U!
13!
#1760000
1G
#1770000
0G
#1780000
1G
#1790000
0G
#1800000
0;
09
07
b1111 E
1G
05
b1010 U!
12!
1&!
#1810000
0G
#1820000
1G
#1830000
0G
#1840000
1G
#1850000
0?
0=
b11111 E
0G
b0 U!
11!
1%!
#1860000
1G
#1870000
0G
#1880000
1G
#1890000
0G
#1900000
1G
#1910000
0G
#1920000
1G
#1930000
0G
#1940000
1G
#1950000
1?
1@
1>
1=
1<
1;
1:
19
18
17
0)!
0'!
b10101010101010101010 E
b1000 F
0G
16
15
14
13
12
11
10
1/
1.
1-
1.!
1/!
b11111111111111111111 U!
05!
03!
01!
0-!
0,!
0%!
1$!
1"!
1~
1|
1z
1x
1v
1t
0+!
1*!
#1960000
1G
#1970000
0G
#1980000
1G
#1990000
0G
#2000000
0?
0=
0;
09
07
1)!
0(!
1'!
b1010101010101010101 E
1G
05
03
01
0/
0-
0.!
0/!
10!
b1010101010101010101 U!
15!
04!
13!
02!
11!
0&!
1%!
0$!
1#!
0"!
1!!
0~
1}
0|
1{
0z
1y
0x
1w
0v
1u
0t
#2010000
0G
#2020000
1G
#2030000
0G
#2040000
1G
#2050000
1?
1;
17
1(!
0'!
b110011001100110011 E
0G
13
1/
00!
b1110111011101110111 U!
14!
03!
1$!
0#!
1~
0}
1z
0y
1v
0u
#2060000
1G
#2070000
0G
#2080000
1G
#2090000
0G
#2100000
0?
0@
0>
0<
0;
0:
08
07
0)!
b10101010101010101010 E
b1001 F
1G
06
04
03
02
00
0/
0.
1.!
1/!
b0 U!
05!
12!
01!
1-!
1&!
0%!
1"!
0!!
1|
0{
1x
0w
1t
#2110000
0G
#2120000
1G
#2130000
0G
#2140000
1G
#2150000
1@
1>
1<
1:
18
1)!
0(!
1'!
b1010101010101010101 E
0G
16
14
12
10
1.
0.!
0/!
10!
b1010101010101010101 U!
15!
04!
13!
02!
11!
0&!
1%!
0$!
1#!
0"!
1!!
0~
1}
0|
1{
0z
1y
0x
1w
0v
1u
0t
#2160000
1G
#2170000
0G
#2180000
1G
#2190000
0G
#2200000
0>
0:
1(!
0'!
b110011001100110011 E
1G
06
02
0.
00!
b10001000100010001 U!
14!
03!
1$!
0#!
1~
0}
1z
0y
1v
0u
